module productinfo/client

go 1.18

require (
	github.com/gofrs/uuid v4.2.0+incompatible // indirect
	github.com/golang/protobuf v1.5.2 // indirect
	github.com/google/uuid v1.3.0 // indirect
	golang.org/x/net v0.0.0-20220403103023-749bd193bc2b // indirect
	golang.org/x/sys v0.0.0-20220405052023-b1e9470b6e64 // indirect
	golang.org/x/text v0.3.7 // indirect
	google.golang.org/genproto v0.0.0-20220401170504-314d38edb7de // indirect
	google.golang.org/grpc v1.45.0 // indirect
	google.golang.org/protobuf v1.28.0 // indirect
)
